sim/wave.vcd
$date
	Sun Jun  7 17:07:08 2026
$end
$version
	Icarus Verilog
$end
$timescale
	1ps
$end
$scope module tb_axis_dma_top $end
$var wire 1 ! status_done $end
$var wire 1 " status_busy $end
$var wire 1 # mem_re $end
$var wire 16 $ mem_addr [15:0] $end
$var wire 1 % m_axis_tvalid $end
$var wire 1 & m_axis_tlast $end
$var wire 32 ' m_axis_tdata [31:0] $end
$var reg 16 ( cfg_addr [15:0] $end
$var reg 8 ) cfg_len [7:0] $end
$var reg 1 * cfg_start $end
$var reg 1 + clk $end
$var reg 1 , m_axis_tready $end
$var reg 32 - mem_rdata [31:0] $end
$var reg 1 . mem_rvalid $end
$var reg 32 / rand_word [31:0] $end
$var reg 1 0 rst_n $end
$var integer 32 1 errors [31:0] $end
$var integer 32 2 i [31:0] $end
$var integer 32 3 rx_count [31:0] $end
$var integer 32 4 transfer_num [31:0] $end
$scope module dut $end
$var wire 16 5 cfg_addr [15:0] $end
$var wire 8 6 cfg_len [7:0] $end
$var wire 1 * cfg_start $end
$var wire 1 + clk $end
$var wire 1 , m_axis_tready $end
$var wire 32 7 mem_rdata [31:0] $end
$var wire 1 . mem_rvalid $end
$var wire 1 0 rst_n $end
$var wire 1 " status_busy $end
$var wire 1 ! status_done $end
$var wire 1 8 reader_done $end
$var wire 1 9 reader_busy $end
$var wire 1 # mem_re $end
$var wire 16 : mem_addr [15:0] $end
$var wire 1 ; master_done $end
$var wire 1 < master_busy $end
$var wire 1 % m_axis_tvalid $end
$var wire 1 & m_axis_tlast $end
$var wire 32 = m_axis_tdata [31:0] $end
$var wire 1 > fifo_wr_valid $end
$var wire 1 ? fifo_wr_ready $end
$var wire 32 @ fifo_wr_data [31:0] $end
$var wire 1 A fifo_rd_valid $end
$var wire 1 B fifo_rd_ready $end
$var wire 32 C fifo_rd_data [31:0] $end
$var reg 1 D start_pulse $end
$var reg 1 E t_state $end
$scope module u_fifo $end
$var wire 1 + clk $end
$var wire 1 F full $end
$var wire 32 G rd_data [31:0] $end
$var wire 1 0 rst_n $end
$var wire 1 > wr_valid $end
$var wire 1 ? wr_ready $end
$var wire 32 H wr_data [31:0] $end
$var wire 1 A rd_valid $end
$var wire 1 B rd_ready $end
$var wire 1 I empty $end
$var wire 5 J count [4:0] $end
$var reg 5 K rd_ptr [4:0] $end
$var reg 5 L wr_ptr [4:0] $end
$upscope $end
$scope module u_master $end
$var wire 1 + clk $end
$var wire 32 M fifo_rd_data [31:0] $end
$var wire 1 B fifo_rd_ready $end
$var wire 1 A fifo_rd_valid $end
$var wire 8 N length [7:0] $end
$var wire 32 O m_axis_tdata [31:0] $end
$var wire 1 & m_axis_tlast $end
$var wire 1 , m_axis_tready $end
$var wire 1 % m_axis_tvalid $end
$var wire 1 0 rst_n $end
$var wire 1 D start $end
$var reg 8 P beat_cnt [7:0] $end
$var reg 1 < busy $end
$var reg 1 ; done $end
$var reg 8 Q total [7:0] $end
$upscope $end
$scope module u_reader $end
$var wire 16 R base_addr [15:0] $end
$var wire 1 + clk $end
$var wire 32 S fifo_wr_data [31:0] $end
$var wire 1 ? fifo_wr_ready $end
$var wire 1 > fifo_wr_valid $end
$var wire 8 T length [7:0] $end
$var wire 32 U mem_rdata [31:0] $end
$var wire 1 . mem_rvalid $end
$var wire 1 0 rst_n $end
$var wire 1 D start $end
$var reg 1 9 busy $end
$var reg 1 8 done $end
$var reg 16 V mem_addr [15:0] $end
$var reg 1 # mem_re $end
$var reg 8 W remaining [7:0] $end
$var reg 2 X state [1:0] $end
$upscope $end
$upscope $end
$scope task run_transfer $end
$upscope $end
$upscope $end
$enddefinitions $end
#0
$dumpvars
b0 X
b0 W
b0 V
b0 U
b0 T
b0 S
b0 R
b0 Q
b0 P
bx O
b0 N
bx M
b0 L
b0 K
b0 J
1I
b0 H
bx G
0F
0E
0D
bx C
0B
0A
b0 @
1?
0>
bx =
0<
0;
b0 :
09
08
b0 7
b0 6
b0 5
b0 4
b0 3
b10000000000 2
b0 1
00
bx /
0.
b0 -
0,
0+
0*
b0 )
b0 (
bx '
0&
0%
b0 $
0#
0"
0!
$end
#5000
1+
#10000
0+
#15000
1+
#20000
0+
#25000
1+
#30000
0+
#35000
b10010000101010011010100100100 @
b10010000101010011010100100100 H
b10010000101010011010100100100 S
b10010000101010011010100100100 -
b10010000101010011010100100100 7
b10010000101010011010100100100 U
1,
b10110001001000000000000001100010 /
10
1+
#40000
0+
#45000
b1110100100010101011101111101001 /
1+
#50000
0+
#55000
b10111010001111000001100101110 /
1+
#60000
0+
#65000
b11000110100100000001001010001101 /
b1 4
1+
#70000
0+
#75000
1"
1D
1E
b1100011001011110000011111000110 /
1*
b100000 )
b100000 6
b100000 N
b100000 T
1+
#80000
0+
#85000
1B
0D
b100000 Q
1<
b1 X
19
b100000 W
b11010101000111001011010010101010 /
0*
1+
#90000
0+
#95000
0B
b10 X
1#
0,
b11010000000111011111000010100000 /
1+
#100000
0+
#105000
1B
1>
1,
1.
0#
b11011111010001100111100110111 /
1+
#110000
0+
#115000
1%
0>
0B
b1 X
b11111 W
b1 $
b1 :
b1 V
1A
0I
b1 J
b1 L
b10010000101010011010100100100 '
b10010000101010011010100100100 =
b10010000101010011010100100100 O
b10010000101010011010100100100 C
b10010000101010011010100100100 G
b10010000101010011010100100100 M
0.
0,
b11111000011000000010111011110000 /
1+
#120000
0+
#125000
b11000000100010010101111010000001 @
b11000000100010010101111010000001 H
b11000000100010010101111010000001 S
b11000000100010010101111010000001 -
b11000000100010010101111010000001 7
b11000000100010010101111010000001 U
b10 X
1#
b11110100011011001010100011101000 /
1+
#130000
0+
#135000
1>
1B
0#
1.
1,
b11100110100001000001110011001101 /
1+
#140000
0+
#145000
b11000000100010010101111010000001 '
b11000000100010010101111010000001 =
b11000000100010010101111010000001 O
b11000000100010010101111010000001 C
b11000000100010010101111010000001 G
b11000000100010010101111010000001 M
0>
b1 3
0.
b1 P
b1 K
b1 J
b10 L
b1 X
b11110 W
b10 $
b10 :
b10 V
b1101000110011010000100111010001 /
1+
#150000
0+
#155000
0%
bx '
bx =
bx O
bx C
bx G
bx M
b10 X
1#
0A
1I
b0 J
b10 K
b10 P
b10000100100001001101011000001001 @
b10000100100001001101011000001001 H
b10000100100001001101011000001001 S
b10000100100001001101011000001001 -
b10000100100001001101011000001001 7
b10000100100001001101011000001001 U
b10 3
b1011101100000110110001110111011 /
1+
#160000
0+
#165000
1>
1.
0#
b11101111111101101001001011011111 /
1+
#170000
0+
#175000
1%
0>
b1 X
b11101 W
b11 $
b11 :
b11 V
1A
0I
b1 J
b11 L
b10000100100001001101011000001001 '
b10000100100001001101011000001001 =
b10000100100001001101011000001001 O
b10000100100001001101011000001001 C
b10000100100001001101011000001001 G
b10000100100001001101011000001001 M
0.
b111110100011101101010101111101 /
1+
#180000
0+
#185000
0B
0%
bx '
bx =
bx O
bx C
bx G
bx M
b11 3
0,
b10110001111100000101011001100011 @
b10110001111100000101011001100011 H
b10110001111100000101011001100011 S
b10110001111100000101011001100011 -
b10110001111100000101011001100011 7
b10110001111100000101011001100011 U
b11 P
0A
1I
b0 J
b11 K
b10 X
1#
b101100010000000010000101011000 /
1+
#190000
0+
#195000
1>
1B
0#
1.
1,
b11001111111101010101000010011111 /
1+
#200000
0+
#205000
1%
0>
0.
1A
0I
b1 J
b100 L
b10110001111100000101011001100011 '
b10110001111100000101011001100011 =
b10110001111100000101011001100011 O
b10110001111100000101011001100011 C
b10110001111100000101011001100011 G
b10110001111100000101011001100011 M
b1 X
b11100 W
b100 $
b100 :
b100 V
b1001011101011000010111110010111 /
1+
#210000
0+
#215000
0%
bx '
bx =
bx O
bx C
bx G
bx M
b10 X
1#
0A
1I
b0 J
b100 K
b100 P
b110101110010111101100001101 @
b110101110010111101100001101 H
b110101110010111101100001101 S
b110101110010111101100001101 -
b110101110010111101100001101 7
b110101110010111101100001101 U
b100 3
b10000011010111011010001000000110 /
1+
#220000
0+
#225000
1>
1.
0#
b10010100101000010010111000101001 /
1+
#230000
0+
#235000
1%
0>
0B
b1 X
b11011 W
b101 $
b101 :
b101 V
1A
0I
b1 J
b101 L
b110101110010111101100001101 '
b110101110010111101100001101 =
b110101110010111101100001101 O
b110101110010111101100001101 C
b110101110010111101100001101 G
b110101110010111101100001101 M
0.
0,
b1100010010010110110001111000100 /
1+
#240000
0+
#245000
1B
1,
b1000110110111111001100110001101 @
b1000110110111111001100110001101 H
b1000110110111111001100110001101 S
b1000110110111111001100110001101 -
b1000110110111111001100110001101 7
b1000110110111111001100110001101 U
b10 X
1#
b11101011101100001111011011010111 /
1+
#250000
0+
#255000
0%
bx '
bx =
bx O
bx C
bx G
bx M
1>
0#
0A
1I
b0 J
b101 K
b101 P
1.
b101 3
b10101110101001101101010001011101 /
1+
#260000
0+
#265000
1%
0>
0.
1A
0I
b1 J
b110 L
b1000110110111111001100110001101 '
b1000110110111111001100110001101 =
b1000110110111111001100110001101 O
b1000110110111111001100110001101 C
b1000110110111111001100110001101 G
b1000110110111111001100110001101 M
b1 X
b11010 W
b110 $
b110 :
b110 V
b100110110001110001001101001101 /
1+
#270000
0+
#275000
0%
bx '
bx =
bx O
bx C
bx G
bx M
b10 X
1#
0A
1I
b0 J
b110 K
b110 P
b10110010110000101000010001100101 @
b10110010110000101000010001100101 H
b10110010110000101000010001100101 S
b10110010110000101000010001100101 -
b10110010110000101000010001100101 7
b10110010110000101000010001100101 U
b110 3
b111001101111111100011101110011 /
1+
#280000
0+
#285000
1>
1.
0#
b10111111110101100010101001111111 /
1+
#290000
0+
#295000
1%
0>
b1 X
b11001 W
b111 $
b111 :
b111 V
1A
0I
b1 J
b111 L
b10110010110000101000010001100101 '
b10110010110000101000010001100101 =
b10110010110000101000010001100101 O
b10110010110000101000010001100101 C
b10110010110000101000010001100101 G
b10110010110000101000010001100101 M
0.
b10100111000000110111010001001110 /
1+
#300000
0+
#305000
0%
bx '
bx =
bx O
bx C
bx G
bx M
b111 3
b10001001001101110101001000010010 @
b10001001001101110101001000010010 H
b10001001001101110101001000010010 S
b10001001001101110101001000010010 -
b10001001001101110101001000010010 7
b10001001001101110101001000010010 U
b111 P
0A
1I
b0 J
b111 K
b10 X
1#
b1011100110111000110010110111001 /
1+
#310000
0+
#315000
1>
0B
0#
1.
0,
b11110000010111010110010011100000 /
1+
#320000
0+
#325000
1B
1%
0>
1,
0.
1A
0I
b1 J
b1000 L
b10001001001101110101001000010010 '
b10001001001101110101001000010010 =
b10001001001101110101001000010010 O
b10001001001101110101001000010010 C
b10001001001101110101001000010010 G
b10001001001101110101001000010010 M
b1 X
b11000 W
b1000 $
b1000 :
b1000 V
b10011100110101101100001000111001 /
1+
#330000
0+
#335000
0%
bx '
bx =
bx O
bx C
bx G
bx M
b10 X
1#
0A
1I
b0 J
b1000 K
b1000 P
b111100111110001100000001 @
b111100111110001100000001 H
b111100111110001100000001 S
b111100111110001100000001 -
b111100111110001100000001 7
b111100111110001100000001 U
b1000 3
b1000000111110110100111110000001 /
1+
#340000
0+
#345000
1>
1.
0#
b11000111110111000001100110001 /
1+
#350000
0+
#355000
1%
0>
b1 X
b10111 W
b1001 $
b1001 :
b1001 V
1A
0I
b1 J
b1001 L
b111100111110001100000001 '
b111100111110001100000001 =
b111100111110001100000001 O
b111100111110001100000001 C
b111100111110001100000001 G
b111100111110001100000001 M
0.
b1000111111010111110111110001111 /
1+
#360000
0+
#365000
0%
bx '
bx =
bx O
bx C
bx G
bx M
b1001 3
b110110101111100110100001101 @
b110110101111100110100001101 H
b110110101111100110100001101 S
b110110101111100110100001101 -
b110110101111100110100001101 7
b110110101111100110100001101 U
b1001 P
0A
1I
b0 J
b1001 K
b10 X
1#
b1111111010100110111110111111110 /
1+
#370000
0+
#375000
1>
0#
1.
b10101110110100001111000001011101 /
1+
#380000
0+
#385000
1%
0>
0.
1A
0I
b1 J
b1010 L
b110110101111100110100001101 '
b110110101111100110100001101 =
b110110101111100110100001101 O
b110110101111100110100001101 C
b110110101111100110100001101 G
b110110101111100110100001101 M
b1 X
b10110 W
b1010 $
b1010 :
b1010 V
b10000111100010101000100000001111 /
1+
#390000
0+
#395000
0%
bx '
bx =
bx O
bx C
bx G
bx M
b10 X
1#
0A
1I
b0 J
b1010 K
b1010 P
b111011001000111111000101110110 @
b111011001000111111000101110110 H
b111011001000111111000101110110 S
b111011001000111111000101110110 -
b111011001000111111000101110110 7
b111011001000111111000101110110 U
b1010 3
b11001100110111100101100110011 /
1+
#400000
0+
#405000
1>
1.
0#
b110100100011101101010101101001 /
1+
#410000
0+
#415000
1%
0>
b1 X
b10101 W
b1011 $
b1011 :
b1011 V
1A
0I
b1 J
b1011 L
b111011001000111111000101110110 '
b111011001000111111000101110110 =
b111011001000111111000101110110 O
b111011001000111111000101110110 C
b111011001000111111000101110110 G
b111011001000111111000101110110 M
0.
b101011000011011010010101010110 /
1+
#420000
0+
#425000
0%
bx '
bx =
bx O
bx C
bx G
bx M
b1011 3
b11110100011011100110100111101 @
b11110100011011100110100111101 H
b11110100011011100110100111101 S
b11110100011011100110100111101 -
b11110100011011100110100111101 7
b11110100011011100110100111101 U
b1011 P
0A
1I
b0 J
b1011 K
b10 X
1#
b11001101010101110101001010011010 /
1+
#430000
0+
#435000
1>
0B
0#
1.
0,
b101110011100100010100101011100 /
1+
#440000
0+
#445000
1B
1%
0>
1,
0.
1A
0I
b1 J
b1100 L
b11110100011011100110100111101 '
b11110100011011100110100111101 =
b11110100011011100110100111101 O
b11110100011011100110100111101 C
b11110100011011100110100111101 G
b11110100011011100110100111101 M
b1 X
b10100 W
b1100 $
b1100 :
b1100 V
b100100111010010000011101001001 /
1+
#450000
0+
#455000
0%
bx '
bx =
bx O
bx C
bx G
bx M
b10 X
1#
0A
1I
b0 J
b1100 K
b1100 P
b1110110110101000101011111101101 @
b1110110110101000101011111101101 H
b1110110110101000101011111101101 S
b1110110110101000101011111101101 -
b1110110110101000101011111101101 7
b1110110110101000101011111101101 U
b1100 3
b1101001110011010111011111010011 /
1+
#460000
0+
#465000
1>
1.
0#
b10011101011100110111101000111010 /
1+
#470000
0+
#475000
1%
0>
0B
b1 X
b10011 W
b1101 $
b1101 :
b1101 V
1A
0I
b1 J
b1101 L
b1110110110101000101011111101101 '
b1110110110101000101011111101101 =
b1110110110101000101011111101101 O
b1110110110101000101011111101101 C
b1110110110101000101011111101101 G
b1110110110101000101011111101101 M
0.
0,
b1101100011101001111010111011000 /
1+
#480000
0+
#485000
b1000110001011011111011110001100 @
b1000110001011011111011110001100 H
b1000110001011011111011110001100 S
b1000110001011011111011110001100 -
b1000110001011011111011110001100 7
b1000110001011011111011110001100 U
b10 X
1#
b10111100000111000000111001111000 /
1+
#490000
0+
#495000
1>
1B
0#
1.
1,
b11100110010110011010100111001 /
1+
#500000
0+
#505000
b1000110001011011111011110001100 '
b1000110001011011111011110001100 =
b1000110001011011111011110001100 O
b1000110001011011111011110001100 C
b1000110001011011111011110001100 G
b1000110001011011111011110001100 M
0>
b1101 3
0.
b1101 P
b1101 K
b1 J
b1110 L
b1 X
b10010 W
b1110 $
b1110 :
b1110 V
b10010010110100000110000000100101 /
1+
#510000
0+
#515000
0%
bx '
bx =
bx O
bx C
bx G
bx M
b10 X
1#
0A
1I
b0 J
b1110 K
b1110 P
b1111100111111011110100111111001 @
b1111100111111011110100111111001 H
b1111100111111011110100111111001 S
b1111100111111011110100111111001 -
b1111100111111011110100111111001 7
b1111100111111011110100111111001 U
b1110 3
b10000100100101101101011000001001 /
1+
#520000
0+
#525000
1>
1.
0#
b10101011001101111010100001010110 /
1+
#530000
0+
#535000
1%
0>
0B
b1 X
b10001 W
b1111 $
b1111 :
b1111 V
1A
0I
b1 J
b1111 L
b1111100111111011110100111111001 '
b1111100111111011110100111111001 =
b1111100111111011110100111111001 O
b1111100111111011110100111111001 C
b1111100111111011110100111111001 G
b1111100111111011110100111111001 M
0.
0,
b10010110001011000110100000101100 /
1+
#540000
0+
#545000
1B
1,
b11100011001101110010010011000110 @
b11100011001101110010010011000110 H
b11100011001101110010010011000110 S
b11100011001101110010010011000110 -
b11100011001101110010010011000110 7
b11100011001101110010010011000110 U
b10 X
1#
b11101001100110110001110011010011 /
1+
#550000
0+
#555000
0%
bx '
bx =
bx O
bx C
bx G
bx M
1>
0#
0A
1I
b0 J
b1111 K
b1111 P
1.
b1111 3
b1101011000110011111100011010 /
1+
#560000
0+
#565000
0B
1%
0>
0,
0.
1A
0I
b1 J
b10000 L
b11100011001101110010010011000110 '
b11100011001101110010010011000110 =
b11100011001101110010010011000110 O
b11100011001101110010010011000110 C
b11100011001101110010010011000110 G
b11100011001101110010010011000110 M
b1 X
b10000 W
b10000 $
b10000 :
b10000 V
b10111010101000100000000 /
1+
#570000
0+
#575000
b10 X
1#
b11100010111101111000010011000101 @
b11100010111101111000010011000101 H
b11100010111101111000010011000101 S
b11100010111101111000010011000101 -
b11100010111101111000010011000101 7
b11100010111101111000010011000101 U
b1010110000011010101111110101100 /
1+
#580000
0+
#585000
1>
1.
0#
b11110100010110001000111011101000 /
1+
#590000
0+
#595000
0>
b1 X
b1111 W
b10001 $
b10001 :
b10001 V
b10 J
b10001 L
0.
b10110110011010100101100001101100 /
1+
#600000
0+
#605000
b11010101000100111101001010101010 @
b11010101000100111101001010101010 H
b11010101000100111101001010101010 S
b11010101000100111101001010101010 -
b11010101000100111101001010101010 7
b11010101000100111101001010101010 U
b10 X
1#
b11010000001111000100000010100000 /
1+
#610000
0+
#615000
1>
1B
0#
1.
1,
b1110110011010010010100011101 /
1+
#620000
0+
#625000
b11100010111101111000010011000101 '
b11100010111101111000010011000101 =
b11100010111101111000010011000101 O
b11100010111101111000010011000101 C
b11100010111101111000010011000101 G
b11100010111101111000010011000101 M
0>
b10000 3
0.
b10000 P
b10000 K
b10 J
b10010 L
b1 X
b1110 W
b10010 $
b10010 :
b10010 V
b1101000110000010100111111010001 /
1+
#630000
0+
#635000
b11010101000100111101001010101010 '
b11010101000100111101001010101010 =
b11010101000100111101001010101010 O
b11010101000100111101001010101010 C
b11010101000100111101001010101010 G
b11010101000100111101001010101010 M
0B
b10 X
1#
b1 J
b10001 K
b10001 P
b1110010101011111111011111100101 @
b1110010101011111111011111100101 H
b1110010101011111111011111100101 S
b1110010101011111111011111100101 -
b1110010101011111111011111100101 7
b1110010101011111111011111100101 U
0,
b10001 3
b11011010000111100000000 /
1+
#640000
0+
#645000
1B
1>
1,
1.
0#
b11101101010011010111100011011010 /
1+
#650000
0+
#655000
b1110010101011111111011111100101 '
b1110010101011111111011111100101 =
b1110010101011111111011111100101 O
b1110010101011111111011111100101 C
b1110010101011111111011111100101 G
b1110010101011111111011111100101 M
0>
0B
b1 X
b1101 W
b10011 $
b10011 :
b10011 V
b10011 L
1A
0I
b1 J
b10010 K
b10010 P
0.
0,
b10010 3
b1101100000110011000011111011000 /
1+
#660000
0+
#665000
b10111011110100100111001001110111 @
b10111011110100100111001001110111 H
b10111011110100100111001001110111 S
b10111011110100100111001001110111 -
b10111011110100100111001001110111 7
b10111011110100100111001001110111 U
b10 X
1#
b1100000010111011011101111000000 /
1+
#670000
0+
#675000
1>
0#
1.
b10100110010010010000110001001100 /
1+
#680000
0+
#685000
1B
0>
1,
0.
b10 J
b10100 L
b1 X
b1100 W
b10100 $
b10100 :
b10100 V
b11101000110011111011000011010001 /
1+
#690000
0+
#695000
b10111011110100100111001001110111 '
b10111011110100100111001001110111 =
b10111011110100100111001001110111 O
b10111011110100100111001001110111 C
b10111011110100100111001001110111 G
b10111011110100100111001001110111 M
b10 X
1#
b1 J
b10011 K
b10011 P
b10001001001100101101011000010010 @
b10001001001100101101011000010010 H
b10001001001100101101011000010010 S
b10001001001100101101011000010010 -
b10001001001100101101011000010010 7
b10001001001100101101011000010010 U
b10011 3
b10101000101110110000110001010001 /
1+
#700000
0+
#705000
1>
0%
b110101110010111101100001101 '
b110101110010111101100001101 =
b110101110010111101100001101 O
b110101110010111101100001101 C
b110101110010111101100001101 G
b110101110010111101100001101 M
b10100 3
1.
b10100 P
0A
1I
b0 J
b10100 K
0#
b10101000111000011110111001010001 /
1+
#710000
0+
#715000
1%
0>
b1 X
b1011 W
b10101 $
b10101 :
b10101 V
1A
0I
b1 J
b10101 L
b10001001001100101101011000010010 '
b10001001001100101101011000010010 =
b10001001001100101101011000010010 O
b10001001001100101101011000010010 C
b10001001001100101101011000010010 G
b10001001001100101101011000010010 M
0.
b10100010101001001011111001000101 /
1+
#720000
0+
#725000
0%
b1000110110111111001100110001101 '
b1000110110111111001100110001101 =
b1000110110111111001100110001101 O
b1000110110111111001100110001101 C
b1000110110111111001100110001101 G
b1000110110111111001100110001101 M
b10101 3
b1000111111011001101101110001111 @
b1000111111011001101101110001111 H
b1000111111011001101101110001111 S
b1000111111011001101101110001111 -
b1000111111011001101101110001111 7
b1000111111011001101101110001111 U
b10101 P
0A
1I
b0 J
b10101 K
b10 X
1#
b1011001100000110110011110110011 /
1+
#730000
0+
#735000
1>
0#
1.
b10111111001000010000011001111110 /
1+
#740000
0+
#745000
0B
1%
0>
0,
0.
1A
0I
b1 J
b10110 L
b1000111111011001101101110001111 '
b1000111111011001101101110001111 =
b1000111111011001101101110001111 O
b1000111111011001101101110001111 C
b1000111111011001101101110001111 G
b1000111111011001101101110001111 M
b1 X
b1010 W
b10110 $
b10110 :
b10110 V
b11000000010010011100011010000000 /
1+
#750000
0+
#755000
b10 X
1#
b1111001001100000110100111110010 @
b1111001001100000110100111110010 H
b1111001001100000110100111110010 S
b1111001001100000110100111110010 -
b1111001001100000110100111110010 7
b1111001001100000110100111110010 U
b1111110010110110101001111111100 /
1+
#760000
0+
#765000
1>
1.
0#
b100100001001101101011101001000 /
1+
#770000
0+
#775000
0>
1B
b1 X
b1001 W
b10111 $
b10111 :
b10111 V
b10 J
b10111 L
0.
1,
b11000000101011011000000010000001 /
1+
#780000
0+
#785000
b1111001001100000110100111110010 '
b1111001001100000110100111110010 =
b1111001001100000110100111110010 O
b1111001001100000110100111110010 C
b1111001001100000110100111110010 G
b1111001001100000110100111110010 M
b10110 3
b11100111011101101001011011001110 @
b11100111011101101001011011001110 H
b11100111011101101001011011001110 S
b11100111011101101001011011001110 -
b11100111011101101001011011001110 7
b11100111011101101001011011001110 U
b10110 P
b1 J
b10110 K
b10 X
1#
b10011000101101001101110000110001 /
1+
#790000
0+
#795000
0%
b10001001001101110101001000010010 '
b10001001001101110101001000010010 =
b10001001001101110101001000010010 O
b10001001001101110101001000010010 C
b10001001001101110101001000010010 G
b10001001001101110101001000010010 M
1>
0#
0A
1I
b0 J
b10111 K
b10111 P
1.
b10111 3
b1010011101010001011010110100111 /
1+
#800000
0+
#805000
1%
0>
0.
1A
0I
b1 J
b11000 L
b11100111011101101001011011001110 '
b11100111011101101001011011001110 =
b11100111011101101001011011001110 O
b11100111011101101001011011001110 C
b11100111011101101001011011001110 G
b11100111011101101001011011001110 M
b1 X
b1000 W
b11000 $
b11000 :
b11000 V
b1000001101100011111110110000011 /
1+
#810000
0+
#815000
0%
b111100111110001100000001 '
b111100111110001100000001 =
b111100111110001100000001 O
b111100111110001100000001 C
b111100111110001100000001 G
b111100111110001100000001 M
b10 X
1#
0A
1I
b0 J
b11000 K
b11000 P
b11110100000000000111101011101000 @
b11110100000000000111101011101000 H
b11110100000000000111101011101000 S
b11110100000000000111101011101000 -
b11110100000000000111101011101000 7
b11110100000000000111101011101000 U
b11000 3
b10011111110000010100001000111111 /
1+
#820000
0+
#825000
0B
1>
0,
1.
0#
b101001000100000000 /
1+
#830000
0+
#835000
1%
0>
b1 X
b111 W
b11001 $
b11001 :
b11001 V
1A
0I
b1 J
b11001 L
b11110100000000000111101011101000 '
b11110100000000000111101011101000 =
b11110100000000000111101011101000 O
b11110100000000000111101011101000 C
b11110100000000000111101011101000 G
b11110100000000000111101011101000 M
0.
b10110010000101011000110001100100 /
1+
#840000
0+
#845000
1B
1,
b11100010110010100100111011000101 @
b11100010110010100100111011000101 H
b11100010110010100100111011000101 S
b11100010110010100100111011000101 -
b11100010110010100100111011000101 7
b11100010110010100100111011000101 U
b10 X
1#
b111111010100101001001101111110 /
1+
#850000
0+
#855000
0%
b110110101111100110100001101 '
b110110101111100110100001101 =
b110110101111100110100001101 O
b110110101111100110100001101 C
b110110101111100110100001101 G
b110110101111100110100001101 M
1>
0#
0A
1I
b0 J
b11001 K
b11001 P
1.
b11001 3
b1111000100001111101111111110001 /
1+
#860000
0+
#865000
1%
0>
0.
1A
0I
b1 J
b11010 L
b11100010110010100100111011000101 '
b11100010110010100100111011000101 =
b11100010110010100100111011000101 O
b11100010110010100100111011000101 C
b11100010110010100100111011000101 G
b11100010110010100100111011000101 M
b1 X
b110 W
b11010 $
b11010 :
b11010 V
b1000111001011011111101110001110 /
1+
#870000
0+
#875000
0%
b111011001000111111000101110110 '
b111011001000111111000101110110 =
b111011001000111111000101110110 O
b111011001000111111000101110110 C
b111011001000111111000101110110 G
b111011001000111111000101110110 M
b10 X
1#
0A
1I
b0 J
b11010 K
b11010 P
b101110010110000100100101011100 @
b101110010110000100100101011100 H
b101110010110000100100101011100 S
b101110010110000100100101011100 -
b101110010110000100100101011100 7
b101110010110000100100101011100 U
b11010 3
b1001111001000110100110110011110 /
1+
#880000
0+
#885000
0B
1>
0,
1.
0#
b1110100001010000001100111101000 /
1+
#890000
0+
#895000
1%
0>
1B
b1 X
b101 W
b11011 $
b11011 :
b11011 V
1A
0I
b1 J
b11011 L
b101110010110000100100101011100 '
b101110010110000100100101011100 =
b101110010110000100100101011100 O
b101110010110000100100101011100 C
b101110010110000100100101011100 G
b101110010110000100100101011100 M
0.
1,
b100100100000111001101101001001 /
1+
#900000
0+
#905000
0%
b11110100011011100110100111101 '
b11110100011011100110100111101 =
b11110100011011100110100111101 O
b11110100011011100110100111101 C
b11110100011011100110100111101 G
b11110100011011100110100111101 M
b11011 3
b11011110100011100010100010111101 @
b11011110100011100010100010111101 H
b11011110100011100010100010111101 S
b11011110100011100010100010111101 -
b11011110100011100010100010111101 7
b11011110100011100010100010111101 U
b11011 P
0A
1I
b0 J
b11011 K
b10 X
1#
b10000101011010011111101000001010 /
1+
#910000
0+
#915000
1>
0#
1.
b101111101110000001101101011111 /
1+
#920000
0+
#925000
1%
0>
0.
1A
0I
b1 J
b11100 L
b11011110100011100010100010111101 '
b11011110100011100010100010111101 =
b11011110100011100010100010111101 O
b11011110100011100010100010111101 C
b11011110100011100010100010111101 G
b11011110100011100010100010111101 M
b1 X
b100 W
b11100 $
b11100 :
b11100 V
b10101000101111111100100001010001 /
1+
#930000
0+
#935000
0%
b1110110110101000101011111101101 '
b1110110110101000101011111101101 =
b1110110110101000101011111101101 O
b1110110110101000101011111101101 C
b1110110110101000101011111101101 G
b1110110110101000101011111101101 M
b10 X
1#
0A
1I
b0 J
b11100 K
b11100 P
b10010110101010110101100000101101 @
b10010110101010110101100000101101 H
b10010110101010110101100000101101 S
b10010110101010110101100000101101 -
b10010110101010110101100000101101 7
b10010110101010110101100000101101 U
b11100 3
b10100100110110011000011001001001 /
1+
#940000
0+
#945000
1>
1.
0#
b10010010111111010010100000100101 /
1+
#950000
0+
#955000
1%
0>
0B
b1 X
b11 W
b11101 $
b11101 :
b11101 V
1A
0I
b1 J
b11101 L
b10010110101010110101100000101101 '
b10010110101010110101100000101101 =
b10010110101010110101100000101101 O
b10010110101010110101100000101101 C
b10010110101010110101100000101101 G
b10010110101010110101100000101101 M
0.
0,
b10110110010010101110011001101100 /
1+
#960000
0+
#965000
b10110010101001110010011001100101 @
b10110010101001110010011001100101 H
b10110010101001110010011001100101 S
b10110010101001110010011001100101 -
b10110010101001110010011001100101 7
b10110010101001110010011001100101 U
b10 X
1#
b10101100010100001001110001011000 /
1+
#970000
0+
#975000
1>
1B
0#
1.
1,
b10101111010111010110110001011110 /
1+
#980000
0+
#985000
b10110010101001110010011001100101 '
b10110010101001110010011001100101 =
b10110010101001110010011001100101 O
b10110010101001110010011001100101 C
b10110010101001110010011001100101 G
b10110010101001110010011001100101 M
0>
b11101 3
0.
b11101 P
b11101 K
b1 J
b11110 L
b1 X
b10 W
b11110 $
b11110 :
b11110 V
b10010111110111011110001000101111 /
1+
#990000
0+
#995000
0%
b1111100111111011110100111111001 '
b1111100111111011110100111111001 =
b1111100111111011110100111111001 O
b1111100111111011110100111111001 C
b1111100111111011110100111111001 G
b1111100111111011110100111111001 M
b10 X
1#
0A
1I
b0 J
b11110 K
b11110 P
b10110001111011110110001001100011 @
b10110001111011110110001001100011 H
b10110001111011110110001001100011 S
b10110001111011110110001001100011 -
b10110001111011110110001001100011 7
b10110001111011110110001001100011 U
b11110 3
b11000001110011110101101010000011 /
1+
#1000000
0+
#1005000
1>
1.
0#
b10011101101110101001100100111 /
1+
#1010000
0+
#1015000
1%
0>
0B
b1 X
b1 W
b11111 $
b11111 :
b11111 V
1A
0I
b1 J
b11111 L
b10110001111011110110001001100011 '
b10110001111011110110001001100011 =
b10110001111011110110001001100011 O
b10110001111011110110001001100011 C
b10110001111011110110001001100011 G
b10110001111011110110001001100011 M
0.
0,
b1101010010111011101101111010100 /
1+
#1020000
0+
#1025000
b101011100111000011100001010 @
b101011100111000011100001010 H
b101011100111000011100001010 S
b101011100111000011100001010 -
b101011100111000011100001010 7
b101011100111000011100001010 U
b10 X
1#
b11001010000011100100010010010100 /
1+
#1030000
0+
#1035000
1>
1B
0#
1.
1,
b11001001011000011110010010010010 /
1+
#1040000
0+
