sim/wave.vcd
$date
	Sun Jun 21 14:13:22 2026
$end
$version
	Icarus Verilog
$end
$timescale
	1ps
$end
$scope module tb_axis_dma_top $end
$var wire 1 ! status_done $end
$var wire 1 " status_busy $end
$var wire 1 # mem_re $end
$var wire 16 $ mem_addr [15:0] $end
$var wire 1 % m_axis_tvalid $end
$var wire 1 & m_axis_tlast $end
$var wire 32 ' m_axis_tdata [31:0] $end
$var parameter 32 ( AW $end
$var parameter 32 ) DW $end
$var parameter 32 * FIFO_DEPTH $end
$var parameter 32 + LW $end
$var parameter 32 , MAX_BEATS $end
$var parameter 32 - MEM_SIZE $end
$var reg 16 . cfg_addr [15:0] $end
$var reg 8 / cfg_len [7:0] $end
$var reg 1 0 cfg_start $end
$var reg 1 1 clk $end
$var reg 1 2 m_axis_tready $end
$var reg 32 3 mem_rdata [31:0] $end
$var reg 1 4 mem_rvalid $end
$var reg 32 5 rand_word [31:0] $end
$var reg 1 6 rst_n $end
$var integer 32 7 errors [31:0] $end
$var integer 32 8 i [31:0] $end
$var integer 32 9 rx_count [31:0] $end
$var integer 32 : transfer_num [31:0] $end
$scope module dut $end
$var wire 16 ; cfg_addr [15:0] $end
$var wire 8 < cfg_len [7:0] $end
$var wire 1 0 cfg_start $end
$var wire 1 1 clk $end
$var wire 1 2 m_axis_tready $end
$var wire 32 = mem_rdata [31:0] $end
$var wire 1 4 mem_rvalid $end
$var wire 1 6 rst_n $end
$var wire 1 " status_busy $end
$var wire 1 ! status_done $end
$var wire 1 > reader_done $end
$var wire 1 ? reader_busy $end
$var wire 1 # mem_re $end
$var wire 16 @ mem_addr [15:0] $end
$var wire 1 A master_done $end
$var wire 1 B master_busy $end
$var wire 1 % m_axis_tvalid $end
$var wire 1 & m_axis_tlast $end
$var wire 32 C m_axis_tdata [31:0] $end
$var wire 1 D fifo_wr_valid $end
$var wire 1 E fifo_wr_ready $end
$var wire 32 F fifo_wr_data [31:0] $end
$var wire 1 G fifo_rd_valid $end
$var wire 1 H fifo_rd_ready $end
$var wire 32 I fifo_rd_data [31:0] $end
$var parameter 32 J AW $end
$var parameter 32 K DW $end
$var parameter 32 L FIFO_DEPTH $end
$var parameter 32 M LW $end
$var parameter 1 N T_IDLE $end
$var parameter 1 O T_RUN $end
$var reg 1 P start_pulse $end
$var reg 1 Q t_state $end
$scope module u_fifo $end
$var wire 1 1 clk $end
$var wire 1 R full $end
$var wire 32 S rd_data [31:0] $end
$var wire 1 6 rst_n $end
$var wire 1 D wr_valid $end
$var wire 1 E wr_ready $end
$var wire 32 T wr_data [31:0] $end
$var wire 1 G rd_valid $end
$var wire 1 H rd_ready $end
$var wire 1 U empty $end
$var wire 5 V count [4:0] $end
$var parameter 32 W AW $end
$var parameter 32 X DEPTH $end
$var parameter 32 Y DW $end
$var reg 5 Z rd_ptr [4:0] $end
$var reg 5 [ wr_ptr [4:0] $end
$upscope $end
$scope module u_master $end
$var wire 1 1 clk $end
$var wire 32 \ fifo_rd_data [31:0] $end
$var wire 1 H fifo_rd_ready $end
$var wire 1 G fifo_rd_valid $end
$var wire 8 ] length [7:0] $end
$var wire 32 ^ m_axis_tdata [31:0] $end
$var wire 1 & m_axis_tlast $end
$var wire 1 2 m_axis_tready $end
$var wire 1 % m_axis_tvalid $end
$var wire 1 6 rst_n $end
$var wire 1 P start $end
$var parameter 32 _ DW $end
$var parameter 32 ` LW $end
$var reg 8 a beat_cnt [7:0] $end
$var reg 1 B busy $end
$var reg 1 A done $end
$var reg 8 b total [7:0] $end
$upscope $end
$scope module u_reader $end
$var wire 16 c base_addr [15:0] $end
$var wire 1 1 clk $end
$var wire 32 d fifo_wr_data [31:0] $end
$var wire 1 E fifo_wr_ready $end
$var wire 1 D fifo_wr_valid $end
$var wire 8 e length [7:0] $end
$var wire 32 f mem_rdata [31:0] $end
$var wire 1 4 mem_rvalid $end
$var wire 1 6 rst_n $end
$var wire 1 P start $end
$var parameter 32 g AW $end
$var parameter 32 h DW $end
$var parameter 32 i LW $end
$var parameter 2 j S_CHECK $end
$var parameter 2 k S_IDLE $end
$var parameter 2 l S_WAIT $end
$var reg 1 ? busy $end
$var reg 1 > done $end
$var reg 16 m mem_addr [15:0] $end
$var reg 1 # mem_re $end
$var reg 8 n remaining [7:0] $end
$var reg 2 o state [1:0] $end
$upscope $end
$upscope $end
$scope task run_transfer $end
$upscope $end
$upscope $end
$enddefinitions $end
$comment Show the parameter values. $end
$dumpall
b10 l
b0 k
b1 j
b1000 i
b100000 h
b10000 g
b1000 `
b100000 _
b100000 Y
b10000 X
b100 W
1O
0N
b1000 M
b10000 L
b100000 K
b10000 J
b10000000000 -
b100000000 ,
b1000 +
b10000 *
b100000 )
b10000 (
$end
#0
$dumpvars
b0 o
b0 n
b0 m
b0 f
b0 e
b0 d
b0 c
b0 b
b0 a
bx ^
b0 ]
bx \
b0 [
b0 Z
b0 V
1U
b0 T
bx S
0R
0Q
0P
bx I
0H
0G
b0 F
1E
0D
bx C
0B
0A
b0 @
0?
0>
b0 =
b0 <
b0 ;
b0 :
b0 9
b10000000000 8
b0 7
06
bx 5
04
b0 3
02
01
00
b0 /
b0 .
bx '
0&
0%
b0 $
0#
0"
0!
$end
#5000
11
#10000
01
#15000
11
#20000
01
#25000
11
#30000
01
#35000
b10010000101010011010100100100 F
b10010000101010011010100100100 T
b10010000101010011010100100100 d
b10010000101010011010100100100 3
b10010000101010011010100100100 =
b10010000101010011010100100100 f
12
b10110001001000000000000001100010 5
16
11
#40000
01
#45000
b1110100100010101011101111101001 5
11
#50000
01
#55000
b10111010001111000001100101110 5
11
#60000
01
#65000
b11000110100100000001001010001101 5
b1 :
11
#70000
01
#75000
1"
1P
1Q
b1100011001011110000011111000110 5
10
b100000 /
b100000 <
b100000 ]
b100000 e
11
#80000
01
#85000
1H
0P
b100000 b
1B
b1 o
1?
b100000 n
b11010101000111001011010010101010 5
00
11
#90000
01
#95000
0H
b10 o
1#
02
b11010000000111011111000010100000 5
11
#100000
01
#105000
1H
1D
12
14
0#
b11011111010001100111100110111 5
11
#110000
01
#115000
1%
0D
0H
b1 o
b11111 n
b1 $
b1 @
b1 m
1G
0U
b1 V
b1 [
b10010000101010011010100100100 '
b10010000101010011010100100100 C
b10010000101010011010100100100 ^
b10010000101010011010100100100 I
b10010000101010011010100100100 S
b10010000101010011010100100100 \
04
02
b11111000011000000010111011110000 5
11
#120000
01
#125000
b11000000100010010101111010000001 F
b11000000100010010101111010000001 T
b11000000100010010101111010000001 d
b11000000100010010101111010000001 3
b11000000100010010101111010000001 =
b11000000100010010101111010000001 f
b10 o
1#
b11110100011011001010100011101000 5
11
#130000
01
#135000
1D
1H
0#
14
12
b11100110100001000001110011001101 5
11
#140000
01
#145000
b11000000100010010101111010000001 '
b11000000100010010101111010000001 C
b11000000100010010101111010000001 ^
b11000000100010010101111010000001 I
b11000000100010010101111010000001 S
b11000000100010010101111010000001 \
0D
b1 9
04
b1 a
b1 Z
b1 V
b10 [
b1 o
b11110 n
b10 $
b10 @
b10 m
b1101000110011010000100111010001 5
11
#150000
01
#155000
0%
bx '
bx C
bx ^
bx I
bx S
bx \
b10 o
1#
0G
1U
b0 V
b10 Z
b10 a
b10000100100001001101011000001001 F
b10000100100001001101011000001001 T
b10000100100001001101011000001001 d
b10000100100001001101011000001001 3
b10000100100001001101011000001001 =
b10000100100001001101011000001001 f
b10 9
b1011101100000110110001110111011 5
11
#160000
01
#165000
1D
14
0#
b11101111111101101001001011011111 5
11
#170000
01
#175000
1%
0D
b1 o
b11101 n
b11 $
b11 @
b11 m
1G
0U
b1 V
b11 [
b10000100100001001101011000001001 '
b10000100100001001101011000001001 C
b10000100100001001101011000001001 ^
b10000100100001001101011000001001 I
b10000100100001001101011000001001 S
b10000100100001001101011000001001 \
04
b111110100011101101010101111101 5
11
#180000
01
#185000
0H
0%
bx '
bx C
bx ^
bx I
bx S
bx \
b11 9
02
b10110001111100000101011001100011 F
b10110001111100000101011001100011 T
b10110001111100000101011001100011 d
b10110001111100000101011001100011 3
b10110001111100000101011001100011 =
b10110001111100000101011001100011 f
b11 a
0G
1U
b0 V
b11 Z
b10 o
1#
b101100010000000010000101011000 5
11
#190000
01
#195000
1D
1H
0#
14
12
b11001111111101010101000010011111 5
11
#200000
01
#205000
1%
0D
04
1G
0U
b1 V
b100 [
b10110001111100000101011001100011 '
b10110001111100000101011001100011 C
b10110001111100000101011001100011 ^
b10110001111100000101011001100011 I
b10110001111100000101011001100011 S
b10110001111100000101011001100011 \
b1 o
b11100 n
b100 $
b100 @
b100 m
b1001011101011000010111110010111 5
11
#210000
01
#215000
0%
bx '
bx C
bx ^
bx I
bx S
bx \
b10 o
1#
0G
1U
b0 V
b100 Z
b100 a
b110101110010111101100001101 F
b110101110010111101100001101 T
b110101110010111101100001101 d
b110101110010111101100001101 3
b110101110010111101100001101 =
b110101110010111101100001101 f
b100 9
b10000011010111011010001000000110 5
11
#220000
01
#225000
1D
14
0#
b10010100101000010010111000101001 5
11
#230000
01
#235000
1%
0D
0H
b1 o
b11011 n
b101 $
b101 @
b101 m
1G
0U
b1 V
b101 [
b110101110010111101100001101 '
b110101110010111101100001101 C
b110101110010111101100001101 ^
b110101110010111101100001101 I
b110101110010111101100001101 S
b110101110010111101100001101 \
04
02
b1100010010010110110001111000100 5
11
#240000
01
#245000
1H
12
b1000110110111111001100110001101 F
b1000110110111111001100110001101 T
b1000110110111111001100110001101 d
b1000110110111111001100110001101 3
b1000110110111111001100110001101 =
b1000110110111111001100110001101 f
b10 o
1#
b11101011101100001111011011010111 5
11
#250000
01
#255000
0%
bx '
bx C
bx ^
bx I
bx S
bx \
1D
0#
0G
1U
b0 V
b101 Z
b101 a
14
b101 9
b10101110101001101101010001011101 5
11
#260000
01
#265000
1%
0D
04
1G
0U
b1 V
b110 [
b1000110110111111001100110001101 '
b1000110110111111001100110001101 C
b1000110110111111001100110001101 ^
b1000110110111111001100110001101 I
b1000110110111111001100110001101 S
b1000110110111111001100110001101 \
b1 o
b11010 n
b110 $
b110 @
b110 m
b100110110001110001001101001101 5
11
#270000
01
#275000
0%
bx '
bx C
bx ^
bx I
bx S
bx \
b10 o
1#
0G
1U
b0 V
b110 Z
b110 a
b10110010110000101000010001100101 F
b10110010110000101000010001100101 T
b10110010110000101000010001100101 d
b10110010110000101000010001100101 3
b10110010110000101000010001100101 =
b10110010110000101000010001100101 f
b110 9
b111001101111111100011101110011 5
11
#280000
01
#285000
1D
14
0#
b10111111110101100010101001111111 5
11
#290000
01
#295000
1%
0D
b1 o
b11001 n
b111 $
b111 @
b111 m
1G
0U
b1 V
b111 [
b10110010110000101000010001100101 '
b10110010110000101000010001100101 C
b10110010110000101000010001100101 ^
b10110010110000101000010001100101 I
b10110010110000101000010001100101 S
b10110010110000101000010001100101 \
04
b10100111000000110111010001001110 5
11
#300000
01
#305000
0%
bx '
bx C
bx ^
bx I
bx S
bx \
b111 9
b10001001001101110101001000010010 F
b10001001001101110101001000010010 T
b10001001001101110101001000010010 d
b10001001001101110101001000010010 3
b10001001001101110101001000010010 =
b10001001001101110101001000010010 f
b111 a
0G
1U
b0 V
b111 Z
b10 o
1#
b1011100110111000110010110111001 5
11
#310000
01
#315000
1D
0H
0#
14
02
b11110000010111010110010011100000 5
11
#320000
01
#325000
1H
1%
0D
12
04
1G
0U
b1 V
b1000 [
b10001001001101110101001000010010 '
b10001001001101110101001000010010 C
b10001001001101110101001000010010 ^
b10001001001101110101001000010010 I
b10001001001101110101001000010010 S
b10001001001101110101001000010010 \
b1 o
b11000 n
b1000 $
b1000 @
b1000 m
b10011100110101101100001000111001 5
11
#330000
01
#335000
0%
bx '
bx C
bx ^
bx I
bx S
bx \
b10 o
1#
0G
1U
b0 V
b1000 Z
b1000 a
b111100111110001100000001 F
b111100111110001100000001 T
b111100111110001100000001 d
b111100111110001100000001 3
b111100111110001100000001 =
b111100111110001100000001 f
b1000 9
b1000000111110110100111110000001 5
11
#340000
01
#345000
1D
14
0#
b11000111110111000001100110001 5
11
#350000
01
#355000
1%
0D
b1 o
b10111 n
b1001 $
b1001 @
b1001 m
1G
0U
b1 V
b1001 [
b111100111110001100000001 '
b111100111110001100000001 C
b111100111110001100000001 ^
b111100111110001100000001 I
b111100111110001100000001 S
b111100111110001100000001 \
04
b1000111111010111110111110001111 5
11
#360000
01
#365000
0%
bx '
bx C
bx ^
bx I
bx S
bx \
b1001 9
b110110101111100110100001101 F
b110110101111100110100001101 T
b110110101111100110100001101 d
b110110101111100110100001101 3
b110110101111100110100001101 =
b110110101111100110100001101 f
b1001 a
0G
1U
b0 V
b1001 Z
b10 o
1#
b1111111010100110111110111111110 5
11
#370000
01
#375000
1D
0#
14
b10101110110100001111000001011101 5
11
#380000
01
#385000
1%
0D
04
1G
0U
b1 V
b1010 [
b110110101111100110100001101 '
b110110101111100110100001101 C
b110110101111100110100001101 ^
b110110101111100110100001101 I
b110110101111100110100001101 S
b110110101111100110100001101 \
b1 o
b10110 n
b1010 $
b1010 @
b1010 m
b10000111100010101000100000001111 5
11
#390000
01
#395000
0%
bx '
bx C
bx ^
bx I
bx S
bx \
b10 o
1#
0G
1U
b0 V
b1010 Z
b1010 a
b111011001000111111000101110110 F
b111011001000111111000101110110 T
b111011001000111111000101110110 d
b111011001000111111000101110110 3
b111011001000111111000101110110 =
b111011001000111111000101110110 f
b1010 9
b11001100110111100101100110011 5
11
#400000
01
#405000
1D
14
0#
b110100100011101101010101101001 5
11
#410000
01
#415000
1%
0D
b1 o
b10101 n
b1011 $
b1011 @
b1011 m
1G
0U
b1 V
b1011 [
b111011001000111111000101110110 '
b111011001000111111000101110110 C
b111011001000111111000101110110 ^
b111011001000111111000101110110 I
b111011001000111111000101110110 S
b111011001000111111000101110110 \
04
b101011000011011010010101010110 5
11
#420000
01
#425000
0%
bx '
bx C
bx ^
bx I
bx S
bx \
b1011 9
b11110100011011100110100111101 F
b11110100011011100110100111101 T
b11110100011011100110100111101 d
b11110100011011100110100111101 3
b11110100011011100110100111101 =
b11110100011011100110100111101 f
b1011 a
0G
1U
b0 V
b1011 Z
b10 o
1#
b11001101010101110101001010011010 5
11
#430000
01
#435000
1D
0H
0#
14
02
b101110011100100010100101011100 5
11
#440000
01
#445000
1H
1%
0D
12
04
1G
0U
b1 V
b1100 [
b11110100011011100110100111101 '
b11110100011011100110100111101 C
b11110100011011100110100111101 ^
b11110100011011100110100111101 I
b11110100011011100110100111101 S
b11110100011011100110100111101 \
b1 o
b10100 n
b1100 $
b1100 @
b1100 m
b100100111010010000011101001001 5
11
#450000
01
#455000
0%
bx '
bx C
bx ^
bx I
bx S
bx \
b10 o
1#
0G
1U
b0 V
b1100 Z
b1100 a
b1110110110101000101011111101101 F
b1110110110101000101011111101101 T
b1110110110101000101011111101101 d
b1110110110101000101011111101101 3
b1110110110101000101011111101101 =
b1110110110101000101011111101101 f
b1100 9
b1101001110011010111011111010011 5
11
#460000
01
#465000
1D
14
0#
b10011101011100110111101000111010 5
11
#470000
01
#475000
1%
0D
0H
b1 o
b10011 n
b1101 $
b1101 @
b1101 m
1G
0U
b1 V
b1101 [
b1110110110101000101011111101101 '
b1110110110101000101011111101101 C
b1110110110101000101011111101101 ^
b1110110110101000101011111101101 I
b1110110110101000101011111101101 S
b1110110110101000101011111101101 \
04
02
b1101100011101001111010111011000 5
11
#480000
01
#485000
b1000110001011011111011110001100 F
b1000110001011011111011110001100 T
b1000110001011011111011110001100 d
b1000110001011011111011110001100 3
b1000110001011011111011110001100 =
b1000110001011011111011110001100 f
b10 o
1#
b10111100000111000000111001111000 5
11
#490000
01
#495000
1D
1H
0#
14
12
b11100110010110011010100111001 5
11
#500000
01
#505000
b1000110001011011111011110001100 '
b1000110001011011111011110001100 C
b1000110001011011111011110001100 ^
b1000110001011011111011110001100 I
b1000110001011011111011110001100 S
b1000110001011011111011110001100 \
0D
b1101 9
04
b1101 a
b1101 Z
b1 V
b1110 [
b1 o
b10010 n
b1110 $
b1110 @
b1110 m
b10010010110100000110000000100101 5
11
#510000
01
#515000
0%
bx '
bx C
bx ^
bx I
bx S
bx \
b10 o
1#
0G
1U
b0 V
b1110 Z
b1110 a
b1111100111111011110100111111001 F
b1111100111111011110100111111001 T
b1111100111111011110100111111001 d
b1111100111111011110100111111001 3
b1111100111111011110100111111001 =
b1111100111111011110100111111001 f
b1110 9
b10000100100101101101011000001001 5
11
#520000
01
#525000
1D
14
0#
b10101011001101111010100001010110 5
11
#530000
01
#535000
1%
0D
0H
b1 o
b10001 n
b1111 $
b1111 @
b1111 m
1G
0U
b1 V
b1111 [
b1111100111111011110100111111001 '
b1111100111111011110100111111001 C
b1111100111111011110100111111001 ^
b1111100111111011110100111111001 I
b1111100111111011110100111111001 S
b1111100111111011110100111111001 \
04
02
b10010110001011000110100000101100 5
11
#540000
01
#545000
1H
12
b11100011001101110010010011000110 F
b11100011001101110010010011000110 T
b11100011001101110010010011000110 d
b11100011001101110010010011000110 3
b11100011001101110010010011000110 =
b11100011001101110010010011000110 f
b10 o
1#
b11101001100110110001110011010011 5
11
#550000
01
#555000
0%
bx '
bx C
bx ^
bx I
bx S
bx \
1D
0#
0G
1U
b0 V
b1111 Z
b1111 a
14
b1111 9
b1101011000110011111100011010 5
11
#560000
01
#565000
0H
1%
0D
02
04
1G
0U
b1 V
b10000 [
b11100011001101110010010011000110 '
b11100011001101110010010011000110 C
b11100011001101110010010011000110 ^
b11100011001101110010010011000110 I
b11100011001101110010010011000110 S
b11100011001101110010010011000110 \
b1 o
b10000 n
b10000 $
b10000 @
b10000 m
b10111010101000100000000 5
11
#570000
01
#575000
b10 o
1#
b11100010111101111000010011000101 F
b11100010111101111000010011000101 T
b11100010111101111000010011000101 d
b11100010111101111000010011000101 3
b11100010111101111000010011000101 =
b11100010111101111000010011000101 f
b1010110000011010101111110101100 5
11
#580000
01
#585000
1D
14
0#
b11110100010110001000111011101000 5
11
#590000
01
#595000
0D
b1 o
b1111 n
b10001 $
b10001 @
b10001 m
b10 V
b10001 [
04
b10110110011010100101100001101100 5
11
#600000
01
#605000
b11010101000100111101001010101010 F
b11010101000100111101001010101010 T
b11010101000100111101001010101010 d
b11010101000100111101001010101010 3
b11010101000100111101001010101010 =
b11010101000100111101001010101010 f
b10 o
1#
b11010000001111000100000010100000 5
11
#610000
01
#615000
1D
1H
0#
14
12
b1110110011010010010100011101 5
11
#620000
01
#625000
b11100010111101111000010011000101 '
b11100010111101111000010011000101 C
b11100010111101111000010011000101 ^
b11100010111101111000010011000101 I
b11100010111101111000010011000101 S
b11100010111101111000010011000101 \
0D
b10000 9
04
b10000 a
b10000 Z
b10 V
b10010 [
b1 o
b1110 n
b10010 $
b10010 @
b10010 m
b1101000110000010100111111010001 5
11
#630000
01
#635000
b11010101000100111101001010101010 '
b11010101000100111101001010101010 C
b11010101000100111101001010101010 ^
b11010101000100111101001010101010 I
b11010101000100111101001010101010 S
b11010101000100111101001010101010 \
0H
b10 o
1#
b1 V
b10001 Z
b10001 a
b1110010101011111111011111100101 F
b1110010101011111111011111100101 T
b1110010101011111111011111100101 d
b1110010101011111111011111100101 3
b1110010101011111111011111100101 =
b1110010101011111111011111100101 f
02
b10001 9
b11011010000111100000000 5
11
#640000
01
#645000
1H
1D
12
14
0#
b11101101010011010111100011011010 5
11
#650000
01
#655000
b1110010101011111111011111100101 '
b1110010101011111111011111100101 C
b1110010101011111111011111100101 ^
b1110010101011111111011111100101 I
b1110010101011111111011111100101 S
b1110010101011111111011111100101 \
0D
0H
b1 o
b1101 n
b10011 $
b10011 @
b10011 m
b10011 [
1G
0U
b1 V
b10010 Z
b10010 a
04
02
b10010 9
b1101100000110011000011111011000 5
11
#660000
01
#665000
b10111011110100100111001001110111 F
b10111011110100100111001001110111 T
b10111011110100100111001001110111 d
b10111011110100100111001001110111 3
b10111011110100100111001001110111 =
b10111011110100100111001001110111 f
b10 o
1#
b1100000010111011011101111000000 5
11
#670000
01
#675000
1D
0#
14
b10100110010010010000110001001100 5
11
#680000
01
#685000
1H
0D
12
04
b10 V
b10100 [
b1 o
b1100 n
b10100 $
b10100 @
b10100 m
b11101000110011111011000011010001 5
11
#690000
01
#695000
b10111011110100100111001001110111 '
b10111011110100100111001001110111 C
b10111011110100100111001001110111 ^
b10111011110100100111001001110111 I
b10111011110100100111001001110111 S
b10111011110100100111001001110111 \
b10 o
1#
b1 V
b10011 Z
b10011 a
b10001001001100101101011000010010 F
b10001001001100101101011000010010 T
b10001001001100101101011000010010 d
b10001001001100101101011000010010 3
b10001001001100101101011000010010 =
b10001001001100101101011000010010 f
b10011 9
b10101000101110110000110001010001 5
11
#700000
01
#705000
1D
0%
b110101110010111101100001101 '
b110101110010111101100001101 C
b110101110010111101100001101 ^
b110101110010111101100001101 I
b110101110010111101100001101 S
b110101110010111101100001101 \
b10100 9
14
b10100 a
0G
1U
b0 V
b10100 Z
0#
b10101000111000011110111001010001 5
11
#710000
01
#715000
1%
0D
b1 o
b1011 n
b10101 $
b10101 @
b10101 m
1G
0U
b1 V
b10101 [
b10001001001100101101011000010010 '
b10001001001100101101011000010010 C
b10001001001100101101011000010010 ^
b10001001001100101101011000010010 I
b10001001001100101101011000010010 S
b10001001001100101101011000010010 \
04
b10100010101001001011111001000101 5
11
#720000
01
#725000
0%
b1000110110111111001100110001101 '
b1000110110111111001100110001101 C
b1000110110111111001100110001101 ^
b1000110110111111001100110001101 I
b1000110110111111001100110001101 S
b1000110110111111001100110001101 \
b10101 9
b1000111111011001101101110001111 F
b1000111111011001101101110001111 T
b1000111111011001101101110001111 d
b1000111111011001101101110001111 3
b1000111111011001101101110001111 =
b1000111111011001101101110001111 f
b10101 a
0G
1U
b0 V
b10101 Z
b10 o
1#
b1011001100000110110011110110011 5
11
#730000
01
#735000
1D
0#
14
b10111111001000010000011001111110 5
11
#740000
01
#745000
0H
1%
0D
02
04
1G
0U
b1 V
b10110 [
b1000111111011001101101110001111 '
b1000111111011001101101110001111 C
b1000111111011001101101110001111 ^
b1000111111011001101101110001111 I
b1000111111011001101101110001111 S
b1000111111011001101101110001111 \
b1 o
b1010 n
b10110 $
b10110 @
b10110 m
b11000000010010011100011010000000 5
11
#750000
01
#755000
b10 o
1#
b1111001001100000110100111110010 F
b1111001001100000110100111110010 T
b1111001001100000110100111110010 d
b1111001001100000110100111110010 3
b1111001001100000110100111110010 =
b1111001001100000110100111110010 f
b1111110010110110101001111111100 5
11
#760000
01
#765000
1D
14
0#
b100100001001101101011101001000 5
11
#770000
01
#775000
0D
1H
b1 o
b1001 n
b10111 $
b10111 @
b10111 m
b10 V
b10111 [
04
12
b11000000101011011000000010000001 5
11
#780000
01
#785000
b1111001001100000110100111110010 '
b1111001001100000110100111110010 C
b1111001001100000110100111110010 ^
b1111001001100000110100111110010 I
b1111001001100000110100111110010 S
b1111001001100000110100111110010 \
b10110 9
b11100111011101101001011011001110 F
b11100111011101101001011011001110 T
b11100111011101101001011011001110 d
b11100111011101101001011011001110 3
b11100111011101101001011011001110 =
b11100111011101101001011011001110 f
b10110 a
b1 V
b10110 Z
b10 o
1#
b10011000101101001101110000110001 5
11
#790000
01
#795000
0%
b10001001001101110101001000010010 '
b10001001001101110101001000010010 C
b10001001001101110101001000010010 ^
b10001001001101110101001000010010 I
b10001001001101110101001000010010 S
b10001001001101110101001000010010 \
1D
0#
0G
1U
b0 V
b10111 Z
b10111 a
14
b10111 9
b1010011101010001011010110100111 5
11
#800000
01
#805000
1%
0D
04
1G
0U
b1 V
b11000 [
b11100111011101101001011011001110 '
b11100111011101101001011011001110 C
b11100111011101101001011011001110 ^
b11100111011101101001011011001110 I
b11100111011101101001011011001110 S
b11100111011101101001011011001110 \
b1 o
b1000 n
b11000 $
b11000 @
b11000 m
b1000001101100011111110110000011 5
11
#810000
01
#815000
0%
b111100111110001100000001 '
b111100111110001100000001 C
b111100111110001100000001 ^
b111100111110001100000001 I
b111100111110001100000001 S
b111100111110001100000001 \
b10 o
1#
0G
1U
b0 V
b11000 Z
b11000 a
b11110100000000000111101011101000 F
b11110100000000000111101011101000 T
b11110100000000000111101011101000 d
b11110100000000000111101011101000 3
b11110100000000000111101011101000 =
b11110100000000000111101011101000 f
b11000 9
b10011111110000010100001000111111 5
11
#820000
01
#825000
0H
1D
02
14
0#
b101001000100000000 5
11
#830000
01
#835000
1%
0D
b1 o
b111 n
b11001 $
b11001 @
b11001 m
1G
0U
b1 V
b11001 [
b11110100000000000111101011101000 '
b11110100000000000111101011101000 C
b11110100000000000111101011101000 ^
b11110100000000000111101011101000 I
b11110100000000000111101011101000 S
b11110100000000000111101011101000 \
04
b10110010000101011000110001100100 5
11
#840000
01
#845000
1H
12
b11100010110010100100111011000101 F
b11100010110010100100111011000101 T
b11100010110010100100111011000101 d
b11100010110010100100111011000101 3
b11100010110010100100111011000101 =
b11100010110010100100111011000101 f
b10 o
1#
b111111010100101001001101111110 5
11
#850000
01
#855000
0%
b110110101111100110100001101 '
b110110101111100110100001101 C
b110110101111100110100001101 ^
b110110101111100110100001101 I
b110110101111100110100001101 S
b110110101111100110100001101 \
1D
0#
0G
1U
b0 V
b11001 Z
b11001 a
14
b11001 9
b1111000100001111101111111110001 5
11
#860000
01
#865000
1%
0D
04
1G
0U
b1 V
b11010 [
b11100010110010100100111011000101 '
b11100010110010100100111011000101 C
b11100010110010100100111011000101 ^
b11100010110010100100111011000101 I
b11100010110010100100111011000101 S
b11100010110010100100111011000101 \
b1 o
b110 n
b11010 $
b11010 @
b11010 m
b1000111001011011111101110001110 5
11
#870000
01
#875000
0%
b111011001000111111000101110110 '
b111011001000111111000101110110 C
b111011001000111111000101110110 ^
b111011001000111111000101110110 I
b111011001000111111000101110110 S
b111011001000111111000101110110 \
b10 o
1#
0G
1U
b0 V
b11010 Z
b11010 a
b101110010110000100100101011100 F
b101110010110000100100101011100 T
b101110010110000100100101011100 d
b101110010110000100100101011100 3
b101110010110000100100101011100 =
b101110010110000100100101011100 f
b11010 9
b1001111001000110100110110011110 5
11
#880000
01
#885000
0H
1D
02
14
0#
b1110100001010000001100111101000 5
11
#890000
01
#895000
1%
0D
1H
b1 o
b101 n
b11011 $
b11011 @
b11011 m
1G
0U
b1 V
b11011 [
b101110010110000100100101011100 '
b101110010110000100100101011100 C
b101110010110000100100101011100 ^
b101110010110000100100101011100 I
b101110010110000100100101011100 S
b101110010110000100100101011100 \
04
12
b100100100000111001101101001001 5
11
#900000
01
#905000
0%
b11110100011011100110100111101 '
b11110100011011100110100111101 C
b11110100011011100110100111101 ^
b11110100011011100110100111101 I
b11110100011011100110100111101 S
b11110100011011100110100111101 \
b11011 9
b11011110100011100010100010111101 F
b11011110100011100010100010111101 T
b11011110100011100010100010111101 d
b11011110100011100010100010111101 3
b11011110100011100010100010111101 =
b11011110100011100010100010111101 f
b11011 a
0G
1U
b0 V
b11011 Z
b10 o
1#
b10000101011010011111101000001010 5
11
#910000
01
#915000
1D
0#
14
b101111101110000001101101011111 5
11
#920000
01
#925000
1%
0D
04
1G
0U
b1 V
b11100 [
b11011110100011100010100010111101 '
b11011110100011100010100010111101 C
b11011110100011100010100010111101 ^
b11011110100011100010100010111101 I
b11011110100011100010100010111101 S
b11011110100011100010100010111101 \
b1 o
b100 n
b11100 $
b11100 @
b11100 m
b10101000101111111100100001010001 5
11
#930000
01
#935000
0%
b1110110110101000101011111101101 '
b1110110110101000101011111101101 C
b1110110110101000101011111101101 ^
b1110110110101000101011111101101 I
b1110110110101000101011111101101 S
b1110110110101000101011111101101 \
b10 o
1#
0G
1U
b0 V
b11100 Z
b11100 a
b10010110101010110101100000101101 F
b10010110101010110101100000101101 T
b10010110101010110101100000101101 d
b10010110101010110101100000101101 3
b10010110101010110101100000101101 =
b10010110101010110101100000101101 f
b11100 9
b10100100110110011000011001001001 5
11
#940000
01
#945000
1D
14
0#
b10010010111111010010100000100101 5
11
#950000
01
#955000
1%
0D
0H
b1 o
b11 n
b11101 $
b11101 @
b11101 m
1G
0U
b1 V
b11101 [
b10010110101010110101100000101101 '
b10010110101010110101100000101101 C
b10010110101010110101100000101101 ^
b10010110101010110101100000101101 I
b10010110101010110101100000101101 S
b10010110101010110101100000101101 \
04
02
b10110110010010101110011001101100 5
11
#960000
01
#965000
b10110010101001110010011001100101 F
b10110010101001110010011001100101 T
b10110010101001110010011001100101 d
b10110010101001110010011001100101 3
b10110010101001110010011001100101 =
b10110010101001110010011001100101 f
b10 o
1#
b10101100010100001001110001011000 5
11
#970000
01
#975000
1D
1H
0#
14
12
b10101111010111010110110001011110 5
11
#980000
01
#985000
b10110010101001110010011001100101 '
b10110010101001110010011001100101 C
b10110010101001110010011001100101 ^
b10110010101001110010011001100101 I
b10110010101001110010011001100101 S
b10110010101001110010011001100101 \
0D
b11101 9
04
b11101 a
b11101 Z
b1 V
b11110 [
b1 o
b10 n
b11110 $
b11110 @
b11110 m
b10010111110111011110001000101111 5
11
#990000
01
#995000
0%
b1111100111111011110100111111001 '
b1111100111111011110100111111001 C
b1111100111111011110100111111001 ^
b1111100111111011110100111111001 I
b1111100111111011110100111111001 S
b1111100111111011110100111111001 \
b10 o
1#
0G
1U
b0 V
b11110 Z
b11110 a
b10110001111011110110001001100011 F
b10110001111011110110001001100011 T
b10110001111011110110001001100011 d
b10110001111011110110001001100011 3
b10110001111011110110001001100011 =
b10110001111011110110001001100011 f
b11110 9
b11000001110011110101101010000011 5
11
#1000000
01
#1005000
1D
14
0#
b10011101101110101001100100111 5
11
#1010000
01
